<?xml version="1.0" encoding="utf-8"?>
<!-- Generator: Adobe Illustrator 19.2.0, SVG Export Plug-In . SVG Version: 6.00 Build 0)  -->
<svg version="1.1" id="Layer_1" xmlns="http://www.w3.org/2000/svg" xmlns:xlink="http://www.w3.org/1999/xlink" x="0px" y="0px"
	 viewBox="0 0 208.6 208.6" style="enable-background:new 0 0 208.6 208.6;" xml:space="preserve">
<style type="text/css">
	.st0{fill:#1ABFD5;}
	.st1{fill:#FFFFFF;}
	.st2{fill:none;}
	.st3{font-family:'Lato-Bold';}
	.st4{font-size:21px;}
</style>
<title>about-1-6</title>
<rect class="st0" width="208.6" height="208.6"/>
<path class="st1" d="M141,114.1c-10,0.1-18.2-8-18.3-18c0.1-7,4.2-13.4,10.6-16.3l5.1,18c0.4,1.3,1.7,2,3,1.7c0,0,0,0,0,0
	c1.3-0.4,2-1.7,1.6-2.9c0,0,0,0,0,0l-5.1-18.1c1-0.2,2-0.3,3.1-0.3c9.9-0.6,18.4,7,19,16.9c0.6,9.9-7,18.4-16.9,19
	C142.3,114.2,141.6,114.2,141,114.1 M104.4,90.5c-1.1-0.6-2.4-1-3.6-1l-7.6-21.8l32.6-0.2L104.4,90.5z M103.4,97
	c0,1.5-1.3,2.7-2.7,2.6c-0.5,0-0.9-0.1-1.3-0.3c-0.9-0.5-1.4-1.4-1.4-2.4c0-0.2,0-0.5,0.1-0.7c0.1-0.4,0.3-0.7,0.5-1
	c0.5-0.6,1.3-1,2.1-1h0.3c0.7,0.1,1.4,0.4,1.9,1c0.4,0.5,0.6,1,0.6,1.6C103.4,96.8,103.4,96.8,103.4,97 M93.3,95.1h-2.6
	c-0.3-6.3-3.2-12.1-8-16.1l6-9.2l7.4,21.2C94.7,92,93.7,93.4,93.3,95.1 M72.3,94.8L80.1,83c3.4,3.1,5.5,7.4,5.8,12L72.3,94.8z
	 M67.6,114.1c-9.9,0.6-18.4-7-19-16.9c-0.6-9.9,7-18.4,16.9-19c0.7,0,1.4,0,2.1,0c2.9,0,5.8,0.7,8.5,2.1L65.9,95.8
	c-0.5,0.7-0.5,1.6-0.1,2.4c0.4,0.8,1.2,1.2,2.1,1.3l17.7,0.3C83.8,108.2,76.3,114.2,67.6,114.1 M141,73.4c-1.5,0-2.9,0.1-4.4,0.4
	l-5.1-18c8.7-0.8,11.6,0,12.6,0.6c0.6,0.5,0.9,1.2,0.9,2c0.2,1.1,0,2.1-0.5,3.1c-0.7,0.8-2.7,1.2-5,1.1c-1.3,0-2.4,1-2.5,2.3
	c0,1.3,1,2.4,2.3,2.5c2.2,0.1,6.4-0.2,8.7-2.7c1.5-1.9,2.1-4.4,1.7-6.9c-0.2-2.1-1.3-4.1-3.1-5.3c-3-1.9-8.7-2.2-18.6-1.1
	c-0.7,0.1-1.3,0.4-1.7,1c-0.4,0.6-0.5,1.3-0.3,2l2.3,8.2L91.5,63l-1.4-3.9h7.2c1.3,0,2.4-1.1,2.4-2.4c0-1.3-1.1-2.4-2.4-2.4l0,0
	H79.9c-1.3,0-2.4,1.1-2.4,2.4c0,1.3,1.1,2.4,2.4,2.4c0,0,0,0,0,0H85l1.7,5l0,0l-8,12.2c-3.4-1.8-7.2-2.8-11.1-2.8
	C55.1,73.7,45.1,84,45.3,96.6c0.2,12.5,10.6,22.5,23.1,22.3c11-0.2,20.3-8.2,22-19.1l3.2,0.1c1.7,3.8,6.2,5.5,10,3.8
	c2.7-1.2,4.5-3.9,4.5-6.8c0-1-0.2-1.9-0.6-2.8l22.8-24.6l1.6,5.8c-11.8,4.9-17.4,18.5-12.5,30.3s18.5,17.4,30.3,12.5
	c11.8-4.9,17.4-18.5,12.5-30.3C158.7,79.1,150.3,73.5,141,73.4"/>
<rect class="st2" width="216.5" height="208.6"/>
<text transform="matrix(1 0 0 1 9.13 171.31)" class="st1 st3 st4">S</text>
<text transform="matrix(1 0 0 1 20.54 171.31)" class="st1 st3 st4">T</text>
<text transform="matrix(1 0 0 1 31.15 171.31)" class="st1 st3 st4">A</text>
<text transform="matrix(1 0 0 1 45.42 171.31)" class="st1 st3 st4">N</text>
<text transform="matrix(1 0 0 1 61.35 171.31)" class="st1 st3 st4">O</text>
<text transform="matrix(1 0 0 1 77.52 171.31)" class="st1 st3 st4">W</text>
<text transform="matrix(1 0 0 1 99.06 171.31)" class="st1 st3 st4">I</text>
<text transform="matrix(1 0 0 1 104.89 171.31)" class="st1 st3 st4">S</text>
<text transform="matrix(1 0 0 1 116.2 171.31)" class="st1 st3 st4">K</text>
<text transform="matrix(1 0 0 1 130.95 171.31)" class="st1 st3 st4">A</text>
<text transform="matrix(1 0 0 1 145.34 171.31)" class="st1 st3 st4"> </text>
<text transform="matrix(1 0 0 1 9.13 194.31)" class="st1 st3 st4">R</text>
<text transform="matrix(1 0 0 1 21.92 194.31)" class="st1 st3 st4">O</text>
<text transform="matrix(1 0 0 1 38.09 194.31)" class="st1 st3 st4">W</text>
<text transform="matrix(1 0 0 1 59.8 194.31)" class="st1 st3 st4">E</text>
<text transform="matrix(1 0 0 1 71.39 194.31)" class="st1 st3 st4">R</text>
<text transform="matrix(1 0 0 1 84.18 194.31)" class="st1 st3 st4">O</text>
<text transform="matrix(1 0 0 1 100.35 194.31)" class="st1 st3 st4">W</text>
<text transform="matrix(1 0 0 1 122.07 194.31)" class="st1 st3 st4">E</text>
</svg>
