<?xml version="1.0" encoding="utf-8"?>
<!-- Generator: Adobe Illustrator 19.2.0, SVG Export Plug-In . SVG Version: 6.00 Build 0)  -->
<svg version="1.1" id="Layer_1" xmlns="http://www.w3.org/2000/svg" xmlns:xlink="http://www.w3.org/1999/xlink" x="0px" y="0px"
	 viewBox="0 0 208.6 208.6" style="enable-background:new 0 0 208.6 208.6;" xml:space="preserve">
<style type="text/css">
	.st0{fill:#00B188;}
	.st1{fill:#FFFFFF;}
	.st2{font-family:'Lato-Regular';}
	.st3{font-size:54.71px;}
	.st4{font-family:'Lato-Bold';}
	.st5{font-size:21px;}
	.st6{fill:none;}
</style>
<title>about-1-2</title>
<rect class="st0" width="208.6" height="208.6"/>
<text transform="matrix(1 0 0 1 10.01 172.14)" class="st1 st2 st3">3</text>
<text transform="matrix(1 0 0 1 41.41 172.14)" class="st1 st2 st3">56</text>
<text transform="matrix(1 0 0 1 110.38 171.46)" class="st1 st4 st5">MIEJSC</text>
<text transform="matrix(1 0 0 1 9.79 194.46)" class="st1 st4 st5">P</text>
<text transform="matrix(1 0 0 1 21.4 194.46)" class="st1 st4 st5">A</text>
<text transform="matrix(1 0 0 1 35.84 194.46)" class="st1 st4 st5">R</text>
<text transform="matrix(1 0 0 1 49.07 194.46)" class="st1 st4 st5">K</text>
<text transform="matrix(1 0 0 1 63.15 194.46)" class="st1 st4 st5">I</text>
<text transform="matrix(1 0 0 1 69.17 194.46)" class="st1 st4 st5">N</text>
<text transform="matrix(1 0 0 1 85.35 194.46)" class="st1 st4 st5">G</text>
<text transform="matrix(1 0 0 1 100.49 194.46)" class="st1 st4 st5">O</text>
<text transform="matrix(1 0 0 1 116.87 194.46)" class="st1 st4 st5">W</text>
<text transform="matrix(1 0 0 1 139.59 194.46)" class="st1 st4 st5">Y</text>
<text transform="matrix(1 0 0 1 152.17 194.46)" class="st1 st4 st5">C</text>
<text transform="matrix(1 0 0 1 165.73 194.46)" class="st1 st4 st5">H</text>
<path class="st1" d="M112,48.3c-1.5,0-3.1,0.1-4.6,0.4v14.4c1.2,0.2,2.4,0.3,3.7,0.3c5.8,0,9.4-3,9.4-7.9
	C120.6,50.9,117.5,48.3,112,48.3"/>
<path class="st1" d="M127,66.7c-3.8,3.5-9.3,5.1-15.8,5.1c-1.3,0-2.5-0.1-3.8-0.2V89H96.5V41c4.9-0.7,9.9-1.1,14.9-1
	c6.8,0,11.6,1.3,14.9,3.9c3.4,2.8,5.3,6.9,5.2,11.3C131.5,59.9,129.9,64,127,66.7 M132.7,26.4H87c-7.7,0-14,6.3-14,14v45.7
	c0,7.7,6.3,14,14,14h45.7c7.7,0,14-6.3,14-14V40.4C146.7,32.7,140.4,26.4,132.7,26.4"/>
<rect x="-18.8" class="st6" width="236.4" height="208.6"/>
</svg>
