<?xml version="1.0" encoding="utf-8"?>
<!-- Generator: Adobe Illustrator 19.2.0, SVG Export Plug-In . SVG Version: 6.00 Build 0)  -->
<svg version="1.1" id="Layer_1" xmlns="http://www.w3.org/2000/svg" xmlns:xlink="http://www.w3.org/1999/xlink" x="0px" y="0px"
	 viewBox="0 0 208.6 208.6" style="enable-background:new 0 0 208.6 208.6;" xml:space="preserve">
<style type="text/css">
	.st0{fill:#1ABFD5;}
	.st1{fill:#FFFFFF;}
	.st2{font-family:'Lato-Regular';}
	.st3{font-size:36px;}
	.st4{font-size:24px;}
	.st5{font-size:13.92px;}
	.st6{font-family:'Lato-Bold';}
	.st7{font-size:21px;}
	.st8{fill:none;}
</style>
<title>about-1-3</title>
<rect class="st0" width="208.6" height="208.6"/>
<text transform="matrix(1 0 0 1 6.49 126.8)" class="st1 st2 st3">12 887 </text>
<text transform="matrix(1 0 0 1 118.91 126.8)" class="st1 st2 st4">m</text>
<text transform="matrix(1 0 0 1 139.16 118.7998)" class="st1 st2 st5">2</text>
<text transform="matrix(1 0 0 1 7.49 151.86)" class="st1 st6 st7">P</text>
<text transform="matrix(1 0 0 1 20.4 151.86)" class="st1 st6 st7">O</text>
<text transform="matrix(1 0 0 1 36.78 151.86)" class="st1 st6 st7">W</text>
<text transform="matrix(1 0 0 1 58.54 151.86)" class="st1 st6 st7">I</text>
<text transform="matrix(1 0 0 1 64.58 151.86)" class="st1 st6 st7">E</text>
<text transform="matrix(1 0 0 1 76.38 151.86)" class="st1 st6 st7">R</text>
<text transform="matrix(1 0 0 1 90.07 151.86)" class="st1 st6 st7">Z</text>
<text transform="matrix(1 0 0 1 102.16 151.86)" class="st1 st6 st7">C</text>
<text transform="matrix(1 0 0 1 115.71 151.86)" class="st1 st6 st7">H</text>
<text transform="matrix(1 0 0 1 131.87 151.86)" class="st1 st6 st7">N</text>
<text transform="matrix(1 0 0 1 147.86 151.86)" class="st1 st6 st7">I </text>
<text transform="matrix(1 0 0 1 7.49 174.86)" class="st1 st6 st7">B</text>
<text transform="matrix(1 0 0 1 21.13 174.86)" class="st1 st6 st7">I</text>
<text transform="matrix(1 0 0 1 27.21 174.86)" class="st1 st6 st7">U</text>
<text transform="matrix(1 0 0 1 42.78 174.86)" class="st1 st6 st7">R</text>
<text transform="matrix(1 0 0 1 55.78 174.86)" class="st1 st6 st7">O</text>
<text transform="matrix(1 0 0 1 72.16 174.86)" class="st1 st6 st7">W</text>
<text transform="matrix(1 0 0 1 94.08 174.86)" class="st1 st6 st7">E</text>
<text transform="matrix(1 0 0 1 106.18 174.86)" class="st1 st6 st7">J</text>
<text transform="matrix(1 0 0 1 7.49 197.86)" class="st1 st6 st7">(</text>
<text transform="matrix(1 0 0 1 12.73 197.86)" class="st1 st6 st7">2 </text>
<text transform="matrix(1 0 0 1 30.01 197.86)" class="st1 st6 st7">B</text>
<text transform="matrix(1 0 0 1 43.71 197.86)" class="st1 st6 st7">U</text>
<text transform="matrix(1 0 0 1 59.31 197.86)" class="st1 st6 st7">D</text>
<text transform="matrix(1 0 0 1 74.21 197.86)" class="st1 st6 st7">Y</text>
<text transform="matrix(1 0 0 1 87.77 197.86)" class="st1 st6 st7">N</text>
<text transform="matrix(1 0 0 1 103.87 197.86)" class="st1 st6 st7">K</text>
<text transform="matrix(1 0 0 1 117.95 197.86)" class="st1 st6 st7">I</text>
<text transform="matrix(1 0 0 1 123.63 197.86)" class="st1 st6 st7">)</text>
<path class="st1" d="M146.1,54H62.5V34.8c0-2.8,2.2-5.1,5-5.1c0,0,0,0,0,0h24.1v-7.6c0-1.9,1.5-3.5,3.4-3.5h18.3
	c1.9,0,3.5,1.6,3.4,3.5v7.6h24.1c2.8,0,5,2.3,5,5.1L146.1,54L146.1,54z M112.8,26.4c0.1-1.4-0.9-2.6-2.3-2.7H98.1
	c-1.4,0.1-2.4,1.3-2.3,2.7v3.3h17L112.8,26.4L112.8,26.4z"/>
<path class="st1" d="M83,60h-4.8v4.9H83C83,64.8,83,59.9,83,60z M143.6,81.8c0,2.6-2.1,4.8-4.7,4.8c0,0,0,0,0,0H69.8
	c-2.6,0-4.7-2.2-4.7-4.8c0,0,0,0,0,0V56.2h78.5L143.6,81.8L143.6,81.8z M130.3,59.9h-4.8v4.9h4.8V59.9z"/>
<rect x="-17" class="st8" width="227.5" height="208.6"/>
</svg>
