<?xml version="1.0" encoding="utf-8"?>
<!-- Generator: Adobe Illustrator 19.2.0, SVG Export Plug-In . SVG Version: 6.00 Build 0)  -->
<svg version="1.1" id="Warstwa_1" xmlns="http://www.w3.org/2000/svg" xmlns:xlink="http://www.w3.org/1999/xlink" x="0px" y="0px"
	 viewBox="0 0 212.9 208.3" style="enable-background:new 0 0 212.9 208.3;" xml:space="preserve">
<style type="text/css">
	.st0{fill:#00B188;}
	.st1{clip-path:url(#SVGID_2_);}
	.st2{fill:#FFFFFF;}
	.st3{font-family:'Lato-Bold';}
	.st4{font-size:21px;}
</style>
<title>location-1-5</title>
<rect class="st0" width="212.9" height="208.7"/>
<g>
	<defs>
		<rect id="SVGID_1_" width="212.9" height="208.7"/>
	</defs>
	<clipPath id="SVGID_2_">
		<use xlink:href="#SVGID_1_"  style="overflow:visible;"/>
	</clipPath>
	<g class="st1">
		<path class="st2" d="M117.8,122.2L95.7,125l-1.2,1.3c-0.3,0.4-0.3,1.1,0.1,1.4c0.1,0.1,0.2,0.1,0.2,0.1c1.7,0.7,4.2,1.9,4.2,1.9
			l3.5,2.4c2.8,1.4,6,1,8.4-0.9l3.4-3.4c1.2-1.1,2.5-2.2,3.9-3c0.6-0.3,0.8-0.9,0.6-1.5c-0.1-0.1-0.1-0.2-0.2-0.3L117.8,122.2z"/>
		<path class="st2" d="M118.8,108.9L94,111.4l-1,0.9c-0.5,0.4-0.5,1.1-0.1,1.6c0.1,0.1,0.1,0.1,0.2,0.2c0.9,0.6,1.6,1.6,1.8,2.7l0,0
			l22.9-2.7c0.1-0.9,0.7-1.8,1.4-2.3c0.6-0.5,0.7-1.4,0.3-2c0,0,0,0-0.1-0.1L118.8,108.9z"/>
		<path class="st2" d="M118.3,115.6l-23.5,2.7l-1,0.9c-0.5,0.4-0.5,1.1,0,1.6c0.1,0.1,0.1,0.1,0.2,0.1c0.9,0.6,1.5,1.5,1.7,2.6l0,0
			l21.8-2.8c0.1-0.9,0.6-1.7,1.3-2.3c0.6-0.5,0.7-1.4,0.2-2L118.3,115.6z"/>
		<path class="st2" d="M127.8,75.9c0,4.9-1.7,9.7-4.9,13.5c-3.1,4-5.2,8.6-6.3,13.6L96.7,105c-1-5.8-3.3-11.3-6.7-16.1
			c-7.2-9.2-5.5-22.5,3.7-29.7c3.6-2.8,7.9-4.3,12.4-4.5h0.5C118.3,54.7,127.8,64.2,127.8,75.9 M132.4,75.9
			c0-14.2-11.5-25.7-25.8-25.8H106c-14.2,0.3-25.5,12.1-25.1,26.3c0.1,5.6,2.1,10.9,5.5,15.3c3.4,4.7,5.5,10.3,6.1,16.1
			c0.1,1.1,1,2,2.1,2h0.2l23.9-2.5c1-0.1,1.8-0.8,2-1.8c0.9-4.9,3.2-10.2,5.7-13.2C130.3,87.7,132.4,81.9,132.4,75.9"/>
		<path class="st2" d="M78.2,75.9c0-1.3-1-2.3-2.3-2.3h0H59.1c-1.3,0-2.3,1-2.3,2.3c0,1.3,1,2.3,2.3,2.3c0,0,0,0,0,0h16.8
			C77.2,78.2,78.2,77.2,78.2,75.9L78.2,75.9"/>
		<path class="st2" d="M154.1,73.6h-16.8c-1.3,0-2.3,1-2.3,2.3c0,1.3,1,2.3,2.3,2.3h16.8c1.3,0,2.3-1,2.3-2.3
			C156.4,74.7,155.4,73.6,154.1,73.6"/>
		<path class="st2" d="M84.9,95.4c-0.6,0-1.2,0.2-1.6,0.7l-11.9,11.9c-0.9,0.9-1,2.3-0.1,3.2s2.3,1,3.2,0.1c0,0,0.1-0.1,0.1-0.1
			l11.9-11.9c0.9-0.9,0.9-2.4,0-3.3C86.1,95.6,85.5,95.4,84.9,95.4"/>
		<path class="st2" d="M128.3,56.5c0.6,0,1.2-0.2,1.6-0.7L141.8,44c0.9-0.9,1-2.3,0.1-3.2c-0.9-0.9-2.3-1-3.2-0.1
			c0,0-0.1,0.1-0.1,0.1l-11.9,11.8c-0.9,0.9-0.9,2.4,0,3.3C127.1,56.3,127.7,56.5,128.3,56.5"/>
		<path class="st2" d="M106.6,47.5c1.3,0,2.3-1,2.3-2.3c0,0,0,0,0,0V28.4c0-1.3-1-2.3-2.3-2.3c-1.3,0-2.3,1-2.3,2.3c0,0,0,0,0,0
			v16.8C104.3,46.5,105.3,47.5,106.6,47.5L106.6,47.5"/>
		<path class="st2" d="M130,96c-0.9-0.9-2.3-1-3.2-0.1s-1,2.3-0.1,3.2c0,0,0.1,0.1,0.1,0.1l11.9,11.9c0.9,0.9,2.3,1,3.2,0.1
			s1-2.3,0.1-3.2c0,0-0.1-0.1-0.1-0.1L130,96z"/>
		<path class="st2" d="M83.2,55.8c0.9,0.9,2.4,0.8,3.2-0.1c0.8-0.9,0.8-2.2,0-3.1L74.6,40.7c-0.9-0.9-2.4-0.9-3.3,0
			c-0.9,0.9-0.9,2.4,0,3.3L83.2,55.8z"/>
	</g>
</g>
<text transform="matrix(1 0 0 1 9.3 171.59)" class="st2 st3 st4">M</text>
<text transform="matrix(1 0 0 1 28.89 171.59)" class="st2 st3 st4">I</text>
<text transform="matrix(1 0 0 1 34.89 171.59)" class="st2 st3 st4">E</text>
<text transform="matrix(1 0 0 1 46.96 171.59)" class="st2 st3 st4">J</text>
<text transform="matrix(1 0 0 1 55.79 171.59)" class="st2 st3 st4">S</text>
<text transform="matrix(1 0 0 1 67.23 171.59)" class="st2 st3 st4">C</text>
<text transform="matrix(1 0 0 1 80.74 171.59)" class="st2 st3 st4">E </text>
<text transform="matrix(1 0 0 1 97.92 171.59)" class="st2 st3 st4">D</text>
<text transform="matrix(1 0 0 1 113.83 171.59)" class="st2 st3 st4">L</text>
<text transform="matrix(1 0 0 1 125.11 171.59)" class="st2 st3 st4">A</text>
<text transform="matrix(1 0 0 1 9.3 194.58)" class="st2 st3 st4">I</text>
<text transform="matrix(1 0 0 1 15.3 194.58)" class="st2 st3 st4">NN</text>
<text transform="matrix(1 0 0 1 47.53 194.58)" class="st2 st3 st4">O</text>
<text transform="matrix(1 0 0 1 63.87 194.58)" class="st2 st3 st4">W</text>
<text transform="matrix(1 0 0 1 84.78 194.58)" class="st2 st3 st4">A</text>
<text transform="matrix(1 0 0 1 98.63 194.58)" class="st2 st3 st4">C</text>
<text transform="matrix(1 0 0 1 112.57 194.58)" class="st2 st3 st4">J</text>
<text transform="matrix(1 0 0 1 121.33 194.58)" class="st2 st3 st4">I</text>
</svg>
